{
    "_embedded": {
        "metadataResourceList": [
            {
                "group": "datastore",
                "slug": "cassandra",
                "title": "Cassandra",
                "thumbnail": "http://res.cloudinary.com/dzmrr9uj9/image/upload/cassandra.svg",
                "versions": [
                    "3.11.1"
                ],
                "_links": {
                    "self": {
                        "href": "http://localhost/v1/metadata/39060b2b-f59f-4c58-94b2-8c43276d4a06"
                    }
                }
            },
            {
                "group": "datastore",
                "slug": "cloudant",
                "title": "Cloudant",
                "thumbnail": "http://res.cloudinary.com/dzmrr9uj9/image/upload/cloudant.svg",
                "_links": {
                    "self": {
                        "href": "http://localhost/v1/metadata/45f8f572-422a-4593-954e-8eeea7ef30df"
                    }
                }
            },
            {
                "group": "datastore",
                "slug": "couchdb",
                "title": "CouchDB",
                "thumbnail": "http://res.cloudinary.com/dzmrr9uj9/image/upload/couchdb.svg",
                "_links": {
                    "self": {
                        "href": "http://localhost/v1/metadata/c025772b-8df1-47d1-9398-bfd5da2d1ec6"
                    }
                }
            },
            {
                "group": "datastore",
                "slug": "elastsearch",
                "title": "Elastic Search",
                "thumbnail": "http://res.cloudinary.com/dzmrr9uj9/image/upload/elasticsearch.svg",
                "versions": [
                    "6.1",
                    "5.2"
                ],
                "_links": {
                    "self": {
                        "href": "http://localhost/v1/metadata/efcd201b-05cf-4222-8e45-759c92ddbfed"
                    }
                }
            },
            {
                "group": "datastore",
                "slug": "mariadb",
                "title": "MariaDB",
                "thumbnail": "http://res.cloudinary.com/dzmrr9uj9/image/upload/mariadb.svg",
                "_links": {
                    "self": {
                        "href": "http://localhost/v1/metadata/833524e8-0b9b-4667-8e53-a72964f363ad"
                    }
                }
            },
            {
                "group": "datastore",
                "slug": "mongodb",
                "title": "MongoDB",
                "thumbnail": "http://res.cloudinary.com/dzmrr9uj9/image/upload/mongodb.png",
                "versions": [
                    "3.0",
                    "3.4",
                    "3.6"
                ],
                "_links": {
                    "self": {
                        "href": "http://localhost/v1/metadata/2f5021b4-1046-4a75-ac6b-d92a0703b2de"
                    }
                }
            },
            {
                "group": "datastore",
                "slug": "mysql",
                "title": "MySQL",
                "thumbnail": "http://res.cloudinary.com/dzmrr9uj9/image/upload/mysql.svg",
                "versions": [
                    "5.6",
                    "5.7"
                ],
                "_links": {
                    "self": {
                        "href": "http://localhost/v1/metadata/b4118623-7f4f-4521-a377-700dcfeadbcf"
                    }
                }
            },
            {
                "group": "datastore",
                "slug": "neo4j",
                "title": "Neo4j",
                "thumbnail": "http://res.cloudinary.com/dzmrr9uj9/image/upload/neo4j.svg",
                "_links": {
                    "self": {
                        "href": "http://localhost/v1/metadata/1c458bba-7651-4423-9258-5d67ab3c99e7"
                    }
                }
            },
            {
                "group": "datastore",
                "slug": "postgresql",
                "title": "PostgreSQl",
                "thumbnail": "http://res.cloudinary.com/dzmrr9uj9/image/upload/postgresql_white.png",
                "_links": {
                    "self": {
                        "href": "http://localhost/v1/metadata/277d6472-0525-49bb-953d-fcb7864a182d"
                    }
                }
            },
            {
                "group": "datastore",
                "slug": "redis",
                "title": "Redis",
                "thumbnail": "http://res.cloudinary.com/dzmrr9uj9/image/upload/redis.svg",
                "versions": [
                    "4.0.6"
                ],
                "_links": {
                    "self": {
                        "href": "http://localhost/v1/metadata/6e6e30d6-265c-4b35-a21b-0982c89e0e86"
                    }
                }
            }
        ]
    },
    "_links": {
        "first": {
            "href": "http://localhost/v1/metadata/search?page=0&size=10&sort=group,asc"
        },
        "self": {
            "href": "http://localhost/v1/metadata/search?page=0&size=10&sort=group,asc"
        },
        "next": {
            "href": "http://localhost/v1/metadata/search?page=1&size=10&sort=group,asc"
        },
        "last": {
            "href": "http://localhost/v1/metadata/search?page=1&size=10&sort=group,asc"
        }
    },
    "page": {
        "size": 10,
        "totalElements": 11,
        "totalPages": 2,
        "number": 0
    }
}