{
    "_embedded": {
        "metadataResourceList": [
            {
                "group": "framework",
                "slug": "springboot",
                "title": "SpringBoot",
                "thumbnail": "http://res.cloudinary.com/dzmrr9uj9/image/upload/springboot.png",
                "versions": [
                    "1.5.9",
                    "2.0.0"
                ],
                "_links": {
                    "self": {
                        "href": "http://localhost/v1/metadata/60df732f-b104-4903-b45a-e355412c9158"
                    }
                }
            },
            {
                "group": "framework",
                "slug": "dropwizard",
                "title": "DropWizard",
                "thumbnail": "http://res.cloudinary.com/dzmrr9uj9/image/upload/dropwizard.png",
                "versions": [
                    "0.0"
                ],
                "_links": {
                    "self": {
                        "href": "http://localhost/v1/metadata/bc0f6f6d-6d91-48df-b69a-8270e372d519"
                    }
                }
            },
            {
                "group": "framework",
                "slug": "express",
                "title": "Express",
                "thumbnail": "http://res.cloudinary.com/dzmrr9uj9/image/upload/express.svg",
                "versions": [
                    "4.16.1",
                    "4.16.2"
                ],
                "_links": {
                    "self": {
                        "href": "http://localhost/v1/metadata/8ccc908a-18bb-4b72-a708-f096d56714d7"
                    }
                }
            },
            {
                "group": "framework",
                "slug": "loopback",
                "title": "Loopback",
                "thumbnail": "http://res.cloudinary.com/dzmrr9uj9/image/upload/strongloop.svg",
                "versions": [
                    "6.0.3"
                ],
                "_links": {
                    "self": {
                        "href": "http://localhost/v1/metadata/79977896-f920-4396-98a8-ba4a978bffef"
                    }
                }
            },
            {
                "group": "framework",
                "slug": "hapi",
                "title": "HAPI",
                "thumbnail": "http://res.cloudinary.com/dzmrr9uj9/image/upload/hapi.svg",
                "versions": [
                    "16.6.2",
                    "17.2.0"
                ],
                "_links": {
                    "self": {
                        "href": "http://localhost/v1/metadata/c558e49e-5e4f-4ed5-b604-396e2daecd81"
                    }
                }
            },
            {
                "group": "framework",
                "slug": "restify",
                "title": "Restify",
                "thumbnail": "http://res.cloudinary.com/dzmrr9uj9/image/upload/restify.png",
                "versions": [
                    "6.3.4"
                ],
                "_links": {
                    "self": {
                        "href": "http://localhost/v1/metadata/22d82d6f-0d9a-4a00-a9ca-d6eb78d20e03"
                    }
                }
            },
            {
                "group": "framework",
                "slug": "connexion",
                "title": "Connexion",
                "description": "API first applications with OpenAPI/Swagger and Flask",
                "thumbnail": "http://res.cloudinary.com/dzmrr9uj9/image/upload/connexion.png",
                "versions": [
                    "1.2"
                ],
                "_links": {
                    "self": {
                        "href": "http://localhost/v1/metadata/a252f1ce-ab8d-42bd-98a3-d38383d84c86"
                    }
                }
            },
            {
                "group": "framework",
                "slug": "falcon",
                "title": "Falcon",
                "thumbnail": "http://res.cloudinary.com/dzmrr9uj9/image/upload/falcon.svg",
                "versions": [
                    "1.4.0b2"
                ],
                "_links": {
                    "self": {
                        "href": "http://localhost/v1/metadata/4cf959f8-e374-4996-86bd-4939c72de334"
                    }
                }
            },
            {
                "group": "framework",
                "slug": "nameko",
                "title": "Nameko",
                "thumbnail": "http://res.cloudinary.com/dzmrr9uj9/image/upload/nameko.png",
                "versions": [
                    "0.0"
                ],
                "_links": {
                    "self": {
                        "href": "http://localhost/v1/metadata/67fccc74-ae29-4cc5-bae6-80b5b6b8f3dc"
                    }
                }
            },
            {
                "group": "framework",
                "slug": "django",
                "title": "Django",
                "thumbnail": "http://res.cloudinary.com/dzmrr9uj9/image/upload/django.png",
                "versions": [
                    "0.0"
                ],
                "_links": {
                    "self": {
                        "href": "http://localhost/v1/metadata/23791622-aa20-47f7-b89e-9341bdf33b4f"
                    }
                }
            }
        ]
    },
    "_links": {
        "first": {
            "href": "http://localhost/v1/metadata/search?page=0&size=10&sort=group,asc"
        },
        "self": {
            "href": "http://localhost/v1/metadata/search?page=0&size=10&sort=group,asc"
        },
        "next": {
            "href": "http://localhost/v1/metadata/search?page=1&size=10&sort=group,asc"
        },
        "last": {
            "href": "http://localhost/v1/metadata/search?page=1&size=10&sort=group,asc"
        }
    },
    "page": {
        "size": 10,
        "totalElements": 18,
        "totalPages": 2,
        "number": 0
    }
}